\relax 
\providecommand\hyper@newdestlabel[2]{}
\@writefile{toc}{\contentsline {chapter}{\numberline {6}Binary Search}{19}{chapter.1.6}}
\@writefile{lof}{\addvspace {10\p@ }}
\@writefile{lot}{\addvspace {10\p@ }}
\@writefile{toc}{\contentsline {section}{\numberline {6.1}C Code}{19}{section.1.6.1}}
\@writefile{lol}{\contentsline {lstlisting}{\numberline {6.1}A06BinarySearch.c}{19}{lstlisting.1.6.1}}
\@writefile{lol}{\contentsline {lstlisting}{\numberline {6.2}out5.c}{20}{lstlisting.1.6.2}}
\@setckpt{Chapter5/Chapter5}{
\setcounter{page}{21}
\setcounter{equation}{0}
\setcounter{enumi}{0}
\setcounter{enumii}{0}
\setcounter{enumiii}{0}
\setcounter{enumiv}{0}
\setcounter{footnote}{0}
\setcounter{mpfootnote}{0}
\setcounter{part}{1}
\setcounter{chapter}{6}
\setcounter{section}{1}
\setcounter{subsection}{0}
\setcounter{subsubsection}{0}
\setcounter{paragraph}{0}
\setcounter{subparagraph}{0}
\setcounter{figure}{0}
\setcounter{table}{0}
\setcounter{FancyVerbLine}{0}
\setcounter{lstnumber}{35}
\setcounter{lips@count}{0}
\setcounter{Item}{0}
\setcounter{Hfootnote}{0}
\setcounter{bookmark@seq@number}{10}
\setcounter{lstlisting}{2}
\setcounter{section@level}{1}
}
