\relax 
\providecommand\hyper@newdestlabel[2]{}
\providecommand\HyperFirstAtBeginDocument{\AtBeginDocument}
\HyperFirstAtBeginDocument{\ifx\hyper@anchor\@undefined
\global\let\oldcontentsline\contentsline
\gdef\contentsline#1#2#3#4{\oldcontentsline{#1}{#2}{#3}}
\global\let\oldnewlabel\newlabel
\gdef\newlabel#1#2{\newlabelxx{#1}#2}
\gdef\newlabelxx#1#2#3#4#5#6{\oldnewlabel{#1}{{#2}{#3}}}
\AtEndDocument{\ifx\hyper@anchor\@undefined
\let\contentsline\oldcontentsline
\let\newlabel\oldnewlabel
\fi}
\fi}
\global\let\hyper@last\relax 
\gdef\HyperFirstAtBeginDocument#1{#1}
\providecommand\HyField@AuxAddToFields[1]{}
\providecommand\HyField@AuxAddToCoFields[2]{}
\@writefile{toc}{\contentsline {part}{I\hspace  {1em}PART A}{4}{part.1}}
\@input{CBTutorial/CodeBlocks.aux}
\@input{Chapter1/Chapter1.aux}
\@input{Chapter2/Chapter2.aux}
\@input{Chapter3/Chapter3.aux}
\@input{Chapter4/Chapter4.aux}
\@input{Chapter5/Chapter5.aux}
\@input{Chapter6/Chapter6.aux}
\@writefile{toc}{\contentsline {part}{II\hspace  {1em}PART B}{23}{part.2}}
\@input{Chapter7/Chapter7.aux}
\@input{Chapter8/Chapter8.aux}
\@input{Chapter9/Chapter9.aux}
\@input{Chapter10/Chapter10.aux}
\@input{Chapter11/Chapter11.aux}
\@input{Chapter12/Chapter12.aux}
\@input{Chapter13/Chapter13.aux}
\@input{Chapter14/Chapter14.aux}
