\relax 
\providecommand\hyper@newdestlabel[2]{}
\@writefile{toc}{\contentsline {section}{\numberline {0.1}Using Code::Blocks to compile and execute a C Program}{5}{section.1.0.1}}
\@setckpt{CBTutorial/CodeBlocks}{
\setcounter{page}{11}
\setcounter{equation}{0}
\setcounter{enumi}{0}
\setcounter{enumii}{0}
\setcounter{enumiii}{0}
\setcounter{enumiv}{0}
\setcounter{footnote}{0}
\setcounter{mpfootnote}{0}
\setcounter{part}{1}
\setcounter{chapter}{0}
\setcounter{section}{1}
\setcounter{subsection}{0}
\setcounter{subsubsection}{0}
\setcounter{paragraph}{0}
\setcounter{subparagraph}{0}
\setcounter{figure}{0}
\setcounter{table}{0}
\setcounter{FancyVerbLine}{0}
\setcounter{lstnumber}{1}
\setcounter{lips@count}{0}
\setcounter{Item}{0}
\setcounter{Hfootnote}{0}
\setcounter{bookmark@seq@number}{2}
\setcounter{lstlisting}{0}
\setcounter{section@level}{1}
}
