\relax 
\providecommand\hyper@newdestlabel[2]{}
\@writefile{toc}{\contentsline {chapter}{\numberline {12}C Structures}{38}{chapter.2.12}}
\@writefile{lof}{\addvspace {10\p@ }}
\@writefile{lot}{\addvspace {10\p@ }}
\@writefile{lol}{\contentsline {lstlisting}{\numberline {12.1}B13StudentStructure.c}{38}{lstlisting.2.12.1}}
\@writefile{lol}{\contentsline {lstlisting}{\numberline {12.2}out12.c}{39}{lstlisting.2.12.2}}
\@setckpt{Chapter12/Chapter12}{
\setcounter{page}{41}
\setcounter{equation}{0}
\setcounter{enumi}{0}
\setcounter{enumii}{0}
\setcounter{enumiii}{0}
\setcounter{enumiv}{0}
\setcounter{footnote}{0}
\setcounter{mpfootnote}{0}
\setcounter{part}{2}
\setcounter{chapter}{12}
\setcounter{section}{0}
\setcounter{subsection}{0}
\setcounter{subsubsection}{0}
\setcounter{paragraph}{0}
\setcounter{subparagraph}{0}
\setcounter{figure}{0}
\setcounter{table}{0}
\setcounter{FancyVerbLine}{0}
\setcounter{lstnumber}{61}
\setcounter{lips@count}{0}
\setcounter{Item}{0}
\setcounter{Hfootnote}{0}
\setcounter{bookmark@seq@number}{20}
\setcounter{lstlisting}{2}
\setcounter{section@level}{1}
}
