\relax 
\providecommand\hyper@newdestlabel[2]{}
\@writefile{toc}{\contentsline {chapter}{\numberline {9}String Operations}{30}{chapter.2.9}}
\@writefile{lof}{\addvspace {10\p@ }}
\@writefile{lot}{\addvspace {10\p@ }}
\@writefile{toc}{\contentsline {section}{\numberline {9.1}Question}{30}{section.2.9.1}}
\@writefile{lol}{\contentsline {lstlisting}{\numberline {9.1}B10StringFunctions.c}{30}{lstlisting.2.9.1}}
\@writefile{lol}{\contentsline {lstlisting}{\numberline {9.2}out9.c}{32}{lstlisting.2.9.2}}
\@setckpt{Chapter9/Chapter9}{
\setcounter{page}{34}
\setcounter{equation}{0}
\setcounter{enumi}{0}
\setcounter{enumii}{0}
\setcounter{enumiii}{0}
\setcounter{enumiv}{0}
\setcounter{footnote}{0}
\setcounter{mpfootnote}{0}
\setcounter{part}{2}
\setcounter{chapter}{9}
\setcounter{section}{1}
\setcounter{subsection}{0}
\setcounter{subsubsection}{0}
\setcounter{paragraph}{0}
\setcounter{subparagraph}{0}
\setcounter{figure}{0}
\setcounter{table}{0}
\setcounter{FancyVerbLine}{0}
\setcounter{lstnumber}{53}
\setcounter{lips@count}{0}
\setcounter{Item}{0}
\setcounter{Hfootnote}{0}
\setcounter{bookmark@seq@number}{17}
\setcounter{lstlisting}{2}
\setcounter{section@level}{1}
}
