\relax 
\providecommand\hyper@newdestlabel[2]{}
\@writefile{toc}{\contentsline {chapter}{\numberline {14}Recursion}{43}{chapter.2.14}}
\@writefile{lof}{\addvspace {10\p@ }}
\@writefile{lot}{\addvspace {10\p@ }}
\@writefile{lol}{\contentsline {lstlisting}{\numberline {14.1}B15BinarytoDecimal.c}{43}{lstlisting.2.14.1}}
\@writefile{lol}{\contentsline {lstlisting}{\numberline {14.2}out14.c}{44}{lstlisting.2.14.2}}
\@setckpt{Chapter14/Chapter14}{
\setcounter{page}{45}
\setcounter{equation}{0}
\setcounter{enumi}{0}
\setcounter{enumii}{0}
\setcounter{enumiii}{0}
\setcounter{enumiv}{0}
\setcounter{footnote}{0}
\setcounter{mpfootnote}{0}
\setcounter{part}{2}
\setcounter{chapter}{14}
\setcounter{section}{0}
\setcounter{subsection}{0}
\setcounter{subsubsection}{0}
\setcounter{paragraph}{0}
\setcounter{subparagraph}{0}
\setcounter{figure}{0}
\setcounter{table}{0}
\setcounter{FancyVerbLine}{0}
\setcounter{lstnumber}{18}
\setcounter{lips@count}{0}
\setcounter{Item}{0}
\setcounter{Hfootnote}{0}
\setcounter{bookmark@seq@number}{22}
\setcounter{lstlisting}{2}
\setcounter{section@level}{1}
}
