\relax 
\providecommand\hyper@newdestlabel[2]{}
\@writefile{toc}{\contentsline {chapter}{\numberline {7}Prime Number Check}{21}{chapter.1.7}}
\@writefile{lof}{\addvspace {10\p@ }}
\@writefile{lot}{\addvspace {10\p@ }}
\@writefile{toc}{\contentsline {section}{\numberline {7.1}C Code}{21}{section.1.7.1}}
\@writefile{lol}{\contentsline {lstlisting}{\numberline {7.1}A07isPrimefn.c}{21}{lstlisting.1.7.1}}
\@writefile{lol}{\contentsline {lstlisting}{\numberline {7.2}out6.c}{22}{lstlisting.1.7.2}}
\@setckpt{Chapter6/Chapter6}{
\setcounter{page}{23}
\setcounter{equation}{0}
\setcounter{enumi}{0}
\setcounter{enumii}{0}
\setcounter{enumiii}{0}
\setcounter{enumiv}{0}
\setcounter{footnote}{0}
\setcounter{mpfootnote}{0}
\setcounter{part}{1}
\setcounter{chapter}{7}
\setcounter{section}{1}
\setcounter{subsection}{0}
\setcounter{subsubsection}{0}
\setcounter{paragraph}{0}
\setcounter{subparagraph}{0}
\setcounter{figure}{0}
\setcounter{table}{0}
\setcounter{FancyVerbLine}{0}
\setcounter{lstnumber}{32}
\setcounter{lips@count}{0}
\setcounter{Item}{0}
\setcounter{Hfootnote}{0}
\setcounter{bookmark@seq@number}{12}
\setcounter{lstlisting}{2}
\setcounter{section@level}{1}
}
